Simulation_CIC_Mirthe
…
truedata <- truedata[!truedata$BMI == 0,] #disregard data with BMI of 0 
truedata <- truedata[!truedata$BloodPressure == 0,] #disregard data with BloodPressure of 0

print(truedata)

## # A tibble: 729 x 9
##    Pregnancies Glucose BloodPressure SkinThickness Insulin   BMI
##          <int>   <int>         <int>         <int>   <int> <dbl>
##  1           6     148            72            35       0  33.6
##  2           1      85            66            29       0  26.6
##  3           8     183            64             0       0  23.3
##  4           1      89            66            23      94  28.1
##  5           0     137            40            35     168  43.1
##  6           5     116            74             0       0  25.6
##  7           3      78            50            32      88  31  
##  8           2     197            70            45     543  30.5
##  9           4     110            92             0       0  37.6
## 10          10     168            74             0       0  38  
## # ... with 719 more rows, and 3 more variables: DiabetesPedigreeFunction <dbl>,
## #   Age <int>, Outcome <fct>
…
pooled_cartcp <- map_dfr(syn_cartcp, function(x) {
  x %$%
    glm(Outcome ~ BMI + Glucose + Pregnancies, family = binomial(link = "logit")) %>% 
    pool3.syn()
})

pooled_cartcp_maxit <- map_dfr(syn_cartcp_maxit, function(x) {
  x %$%
    glm(Outcome ~ BMI + Glucose + Pregnancies, family = binomial(link = "logit")) %>% 
    pool3.syn()
})

pooled_ds

## # A tibble: 4,000 x 8
##    term             est         bm       ubar        var    df   lower    upper
##    <chr>          <dbl>      <dbl>      <dbl>      <dbl> <dbl>   <dbl>    <dbl>
##  1 (Intercept)  3.42    0.215      0.233      0.276       25.7  2.33    4.50   
##  2 BMI         -0.0325  0.000184   0.000147   0.000184    20.0 -0.0607 -0.00419
##  3 Glucose     -0.0116  0.00000213 0.00000678 0.00000721  67.8 -0.0169 -0.00621
##  4 Pregnancies -0.0683  0.000349   0.000603   0.000673    38.6 -0.121  -0.0158 
##  5 (Intercept)  3.73    0.169      0.230      0.264       31.2  2.68    4.77   
##  6 BMI         -0.0469  0.000113   0.000151   0.000174    30.8 -0.0738 -0.0200 
##  7 Glucose     -0.00986 0.00000273 0.00000659 0.00000714  52.3 -0.0152 -0.00449
##  8 Pregnancies -0.0870  0.000988   0.000598   0.000796    16.1 -0.147  -0.0272 
##  9 (Intercept)  3.87    0.353      0.243      0.313       17.7  2.69    5.04   
## 10 BMI         -0.0457  0.0000557  0.000148   0.000159    57.2 -0.0709 -0.0204 
## # ... with 3,990 more rows

pooled_cart

## # A tibble: 4,000 x 8
##    term            est         bm       ubar        var    df   lower   upper
##    <chr>         <dbl>      <dbl>      <dbl>      <dbl> <dbl>   <dbl>   <dbl>
##  1 (Intercept)  6.82   0.280      0.372      0.428       30.6  5.48    8.16  
##  2 BMI         -0.0797 0.000248   0.000190   0.000240    19.3 -0.112  -0.0473
##  3 Glucose     -0.0248 0.00000432 0.00000885 0.00000971  44.9 -0.0310 -0.0185
##  4 Pregnancies -0.100  0.000769   0.000674   0.000828    21.5 -0.160  -0.0407
##  5 (Intercept)  6.17   0.367      0.336      0.409       22.3  4.84    7.49  
##  6 BMI         -0.0629 0.000110   0.000174   0.000196    35.7 -0.0913 -0.0345
##  7 Glucose     -0.0241 0.00000618 0.00000856 0.00000980  31.7 -0.0305 -0.0177
##  8 Pregnancies -0.104  0.000360   0.000639   0.000711    39.5 -0.158  -0.0498
##  9 (Intercept)  6.70   0.0787     0.358      0.374       95.0  5.49    7.92  
## 10 BMI         -0.0710 0.0000420  0.000177   0.000186    88.5 -0.0981 -0.0439
## # ... with 3,990 more rows

pooled_cart_maxit

## # A tibble: 4,000 x 8
##    term            est         bm       ubar        var    df   lower   upper
##    <chr>         <dbl>      <dbl>      <dbl>      <dbl> <dbl>   <dbl>   <dbl>
##  1 (Intercept)  6.46   0.223      0.346      0.390       35.0  5.19    7.73  
##  2 BMI         -0.0720 0.000186   0.000182   0.000220    23.6 -0.103  -0.0414
##  3 Glucose     -0.0243 0.00000239 0.00000893 0.00000941  78.7 -0.0304 -0.0182
##  4 Pregnancies -0.104  0.000395   0.000650   0.000729    36.9 -0.159  -0.0493
##  5 (Intercept)  6.38   0.0479     0.346      0.355      148.   5.21    7.56  
##  6 BMI         -0.0728 0.0000192  0.000176   0.000180   187.  -0.0993 -0.0464
##  7 Glucose     -0.0238 0.00000347 0.00000894 0.00000963  55.4 -0.0300 -0.0176
##  8 Pregnancies -0.106  0.000509   0.000650   0.000752    29.5 -0.162  -0.0503
##  9 (Intercept)  6.10   0.564      0.324      0.437       15.5  4.69    7.50  
## 10 BMI         -0.0628 0.000212   0.000168   0.000210    19.8 -0.0931 -0.0325
## # ... with 3,990 more rows

pooled_cartcp

## # A tibble: 4,000 x 8
##    term            est         bm       ubar       var    df   lower   upper
##    <chr>         <dbl>      <dbl>      <dbl>     <dbl> <dbl>   <dbl>   <dbl>
##  1 (Intercept)  7.57   0.245      0.408      0.457      37.3  6.20    8.94  
##  2 BMI         -0.0763 0.0000750  0.000198   0.000213   56.8 -0.106  -0.0471
##  3 Glucose     -0.0313 0.00000772 0.0000106  0.0000121  31.4 -0.0384 -0.0242
##  4 Pregnancies -0.116  0.000483   0.000713   0.000809   33.5 -0.174  -0.0586
##  5 (Intercept)  7.06   0.347      0.378      0.447      25.8  5.68    8.43  
##  6 BMI         -0.0706 0.0000812  0.000186   0.000203   49.9 -0.0992 -0.0420
##  7 Glucose     -0.0296 0.0000163  0.00000988 0.0000131  16.1 -0.0373 -0.0219
##  8 Pregnancies -0.100  0.000538   0.000681   0.000789   29.3 -0.158  -0.0429
##  9 (Intercept)  7.20   0.0113     0.386      0.388     690.   5.97    8.42  
## 10 BMI         -0.0797 0.0000118  0.000190   0.000193  326.  -0.107  -0.0524
## # ... with 3,990 more rows

pooled_cartcp_maxit

## # A tibble: 4,000 x 8
##    term            est         bm      ubar       var    df   lower   upper
##    <chr>         <dbl>      <dbl>     <dbl>     <dbl> <dbl>   <dbl>   <dbl>
##  1 (Intercept)  7.30   0.187      0.395     0.432      46.3  5.98    8.63  
##  2 BMI         -0.0764 0.0000735  0.000196  0.000211   57.5 -0.105  -0.0473
##  3 Glucose     -0.0299 0.00000462 0.0000101 0.0000110  47.8 -0.0365 -0.0232
##  4 Pregnancies -0.107  0.000146   0.000691  0.000720   98.8 -0.161  -0.0542
##  5 (Intercept)  7.55   0.266      0.412     0.466      35.0  6.16    8.93  
##  6 BMI         -0.0726 0.0000283  0.000195  0.000201  142.  -0.101  -0.0446
##  7 Glucose     -0.0330 0.00000863 0.0000111 0.0000128  29.6 -0.0403 -0.0257
##  8 Pregnancies -0.100  0.000463   0.000686  0.000779   33.6 -0.157  -0.0437
##  9 (Intercept)  8.21   0.0781     0.458     0.473     121.   6.85    9.57  
## 10 BMI         -0.0908 0.0000402  0.000215  0.000223  111.  -0.120  -0.0612
## # ... with 3,990 more rows
…
